MA22019 2025 - Solutions for Quiz 4
…
We then use the functions dmy_hm() (from the lubridate package) and weekdays() as required:

Traffic <- Traffic %>% mutate( date_time = dmy_hm(date_time) )
Traffic <- Traffic %>% mutate( Weekday = weekdays(date_time) )

Traffic <- Traffic %>% distinct(date_time, .keep_all = TRUE)

Traffic <- Traffic %>%
  group_by( Date = date(date_time) ) %>%
  mutate( holiday = holiday[1] )

filter( Traffic, holiday != "None" )

# A tibble: 1,203 × 8
# Groups:   Date [53]
   traffic_volume holiday       temp rain_1h snow_1h date_time           Weekday
            <int> <chr>        <dbl>   <dbl>   <dbl> <dttm>              <chr>  
 1            455 Columbus Day  273.       0       0 2012-10-08 00:00:00 Monday 
 2            336 Columbus Day  273.       0       0 2012-10-08 01:00:00 Monday 
 3            265 Columbus Day  272.       0       0 2012-10-08 02:00:00 Monday 
 4            314 Columbus Day  271.       0       0 2012-10-08 03:00:00 Monday 
 5            779 Columbus Day  271.       0       0 2012-10-08 04:00:00 Monday 
 6           2571 Columbus Day  270.       0       0 2012-10-08 05:00:00 Monday 
 7           5563 Columbus Day  270.       0       0 2012-10-08 06:00:00 Monday 
 8           6676 Columbus Day  270.       0       0 2012-10-08 07:00:00 Monday 
 9           5966 Columbus Day  271.       0       0 2012-10-08 08:00:00 Monday 
10           4832 Columbus Day  274.       0       0 2012-10-08 09:00:00 Monday 
# ℹ 1,193 more rows
# ℹ 1 more variable: Date <date>

Answer the following two questions using the data and submit your solutions via the Moodle quiz on Moodle:

What is the average traffic volume on a Saturday?

We can use functions from the dplyr R package here:.

Traffic %>% 
  filter( Weekday=="Saturday" ) %>%
  summarize( Average = mean(traffic_volume) )

# A tibble: 266 × 2
   Date       Average
   <date>       <dbl>
 1 2012-10-06   3257.
 2 2012-10-13   2938.
 3 2012-10-20   2891.
 4 2012-10-27   3065.
 5 2012-11-03   2810.
 6 2012-11-10   2808.
 7 2012-11-17   2779.
 8 2012-11-24   2525.
 9 2012-12-01   2943.
10 2012-12-08   2797.
# ℹ 256 more rows
…
